Tempo 		 h_final 		 erroOBp 	 erroOBa 	 erroOCa 	 errofvas
0.0000000 	 1.00000000E+01 	 0.00000E+00 	 0.00000E+00 	 0.00000E+00 	 0.00000E+00
10.0000000 	 1.00000000E+01 	 0.00000E+00 	 0.00000E+00 	 0.00000E+00 	 0.00000E+00
20.0000000 	 1.00000001E-01 	 1.76421E-21 	 6.43801E-21 	 1.94366E-21 	 2.28807E-20
20.1000000 	 7.90342926E-02 	 2.51585E-14 	 3.61189E-14 	 1.18091E-14 	 7.76764E-14
20.1790343 	 7.95380808E-02 	 2.45419E-14 	 3.53459E-14 	 1.12914E-14 	 7.80109E-14
20.2585724 	 8.00464202E-02 	 2.44679E-14 	 3.53456E-14 	 1.10354E-14 	 7.99164E-14
20.3386188 	 8.05636670E-02 	 2.43942E-14 	 3.53391E-14 	 1.07864E-14 	 8.17154E-14
20.4191825 	 8.10899607E-02 	 2.43258E-14 	 3.53337E-14 	 1.05463E-14 	 8.34258E-14
20.5002724 	 8.16254913E-02 	 2.42628E-14 	 3.53294E-14 	 1.03149E-14 	 8.50483E-14
20.5818979 	 8.21704564E-02 	 2.42049E-14 	 3.53259E-14 	 1.00917E-14 	 8.65840E-14
20.6640684 	 8.27250619E-02 	 2.41523E-14 	 3.53233E-14 	 9.87659E-15 	 8.80337E-14
20.7467934 	 8.32895254E-02 	 2.41047E-14 	 3.53214E-14 	 9.66913E-15 	 8.93979E-14
20.8300830 	 8.38640691E-02 	 2.40623E-14 	 3.53201E-14 	 9.46910E-15 	 9.06772E-14
20.9139470 	 8.44489314E-02 	 2.40249E-14 	 3.53193E-14 	 9.27620E-15 	 9.18720E-14
20.9983960 	 8.50443552E-02 	 2.39926E-14 	 3.53190E-14 	 9.09017E-15 	 9.29825E-14
21.0834403 	 8.56505995E-02 	 2.39652E-14 	 3.53189E-14 	 8.91083E-15 	 9.40089E-14
21.1690909 	 8.62679299E-02 	 2.39429E-14 	 3.53191E-14 	 8.73790E-15 	 9.49513E-14
21.2553588 	 8.68966292E-02 	 2.39255E-14 	 3.53194E-14 	 8.57119E-15 	 9.58095E-14
21.3422555 	 8.75369913E-02 	 2.39131E-14 	 3.53198E-14 	 8.41048E-15 	 9.65833E-14
21.4297925 	 8.81893266E-02 	 2.39057E-14 	 3.53200E-14 	 8.25556E-15 	 9.72724E-14
21.5179818 	 8.88539567E-02 	 2.39033E-14 	 3.53201E-14 	 8.10628E-15 	 9.78762E-14
21.6068357 	 8.95312225E-02 	 2.39059E-14 	 3.53199E-14 	 7.96243E-15 	 9.83943E-14
21.6963670 	 9.02214754E-02 	 2.39135E-14 	 3.53194E-14 	 7.82389E-15 	 9.88257E-14
21.7865884 	 9.09250920E-02 	 2.39262E-14 	 3.53183E-14 	 7.69048E-15 	 9.91698E-14
21.8775135 	 9.16424647E-02 	 2.39441E-14 	 3.53167E-14 	 7.56203E-15 	 9.94254E-14
21.9691560 	 9.23740077E-02 	 2.39670E-14 	 3.53144E-14 	 7.43843E-15 	 9.95912E-14
22.0615300 	 9.31201536E-02 	 2.39952E-14 	 3.53113E-14 	 7.31953E-15 	 9.96660E-14
22.1546502 	 9.38813596E-02 	 2.40287E-14 	 3.53074E-14 	 7.20521E-15 	 9.96486E-14
22.2485315 	 9.46581079E-02 	 2.40675E-14 	 3.53024E-14 	 7.09540E-15 	 9.95371E-14
22.3431896 	 9.54509106E-02 	 2.41118E-14 	 3.52964E-14 	 6.98992E-15 	 9.93296E-14
22.4386405 	 9.62602984E-02 	 2.41616E-14 	 3.52891E-14 	 6.88871E-15 	 9.90243E-14
22.5349008 	 9.70868446E-02 	 2.42171E-14 	 3.52805E-14 	 6.79169E-15 	 9.86189E-14
22.6319877 	 9.79311455E-02 	 2.42785E-14 	 3.52705E-14 	 6.69873E-15 	 9.81109E-14
22.7299188 	 9.87938345E-02 	 2.43457E-14 	 3.52590E-14 	 6.60984E-15 	 9.74981E-14
22.8287127 	 9.96755892E-02 	 2.44191E-14 	 3.52459E-14 	 6.52486E-15 	 9.67771E-14
22.9283883 	 1.00577117E-01 	 2.44987E-14 	 3.52310E-14 	 6.44378E-15 	 9.59452E-14
23.0289654 	 1.01499183E-01 	 2.45848E-14 	 3.52142E-14 	 6.36653E-15 	 9.49987E-14
23.1304646 	 1.02442586E-01 	 2.46777E-14 	 3.51954E-14 	 6.29305E-15 	 9.39340E-14
23.2329071 	 1.03408181E-01 	 2.47774E-14 	 3.51746E-14 	 6.22334E-15 	 9.27473E-14
23.3363153 	 1.04396886E-01 	 2.48843E-14 	 3.51515E-14 	 6.15733E-15 	 9.14340E-14
23.4407122 	 1.05409672E-01 	 2.49988E-14 	 3.51261E-14 	 6.09501E-15 	 8.99899E-14
23.5461219 	 1.06447581E-01 	 2.51210E-14 	 3.50982E-14 	 6.03642E-15 	 8.84091E-14
23.6525695 	 1.07511719E-01 	 2.52514E-14 	 3.50677E-14 	 5.98147E-15 	 8.66861E-14
23.7600812 	 1.08603289E-01 	 2.53904E-14 	 3.50344E-14 	 5.93023E-15 	 8.48150E-14
23.8686845 	 1.09723558E-01 	 2.55383E-14 	 3.49983E-14 	 5.88272E-15 	 8.27894E-14
23.9784080 	 1.10873909E-01 	 2.56957E-14 	 3.49592E-14 	 5.83893E-15 	 8.06016E-14
24.0892819 	 1.12055815E-01 	 2.58631E-14 	 3.49169E-14 	 5.79895E-15 	 7.82435E-14
24.2013378 	 1.13270875E-01 	 2.60410E-14 	 3.48713E-14 	 5.76279E-15 	 7.57066E-14
24.3146086 	 1.14520809E-01 	 2.62301E-14 	 3.48222E-14 	 5.73054E-15 	 7.29809E-14
24.4291294 	 1.15807483E-01 	 2.64311E-14 	 3.47695E-14 	 5.70228E-15 	 7.00562E-14
24.5449369 	 1.17132924E-01 	 2.66449E-14 	 3.47130E-14 	 5.67812E-15 	 6.69205E-14
24.6620698 	 1.18499328E-01 	 2.68722E-14 	 3.46524E-14 	 5.65819E-15 	 6.35607E-14
24.7805692 	 1.19909097E-01 	 2.71141E-14 	 3.45876E-14 	 5.64262E-15 	 5.99623E-14
24.9004783 	 1.21364852E-01 	 2.73717E-14 	 3.45185E-14 	 5.63159E-15 	 5.61097E-14
25.0218431 	 1.22869449E-01 	 2.76461E-14 	 3.44447E-14 	 5.62530E-15 	 5.19848E-14
25.1447126 	 1.24426060E-01 	 2.79389E-14 	 3.43659E-14 	 5.62395E-15 	 4.75676E-14
25.2691386 	 1.26038147E-01 	 2.82515E-14 	 3.42821E-14 	 5.62785E-15 	 4.28355E-14
25.3951768 	 1.27709540E-01 	 2.85858E-14 	 3.41928E-14 	 5.63729E-15 	 3.77629E-14
25.5228863 	 1.29444505E-01 	 2.89437E-14 	 3.40978E-14 	 5.65262E-15 	 3.23217E-14
25.6523308 	 1.31247779E-01 	 2.93275E-14 	 3.39967E-14 	 5.67425E-15 	 2.64788E-14
25.7835786 	 1.33124650E-01 	 2.97400E-14 	 3.38891E-14 	 5.70269E-15 	 2.01972E-14
25.9167032 	 1.34811111E-01 	 3.01840E-14 	 3.37746E-14 	 5.73845E-15 	 1.34342E-14
26.0515144 	 1.36024465E-01 	 3.04180E-14 	 3.33829E-14 	 5.73624E-15 	 6.08216E-15
26.1875388 	 1.37266052E-01 	 3.01931E-14 	 3.24588E-14 	 5.65088E-15 	 1.70729E-15
26.3248049 	 1.38530716E-01 	 2.99719E-14 	 3.15231E-14 	 5.56992E-15 	 9.68811E-15
26.4633356 	 1.39819543E-01 	 2.97489E-14 	 3.05695E-14 	 5.49228E-15 	 1.78632E-14
26.6031551 	 1.41133529E-01 	 2.95241E-14 	 2.95981E-14 	 5.41797E-15 	 2.62339E-14
26.7442887 	 1.42473814E-01 	 2.92978E-14 	 2.86088E-14 	 5.34691E-15 	 3.48025E-14
26.8867625 	 1.43841514E-01 	 2.90699E-14 	 2.76013E-14 	 5.27912E-15 	 4.35712E-14
27.0306040 	 1.45237891E-01 	 2.88404E-14 	 2.65754E-14 	 5.21454E-15 	 5.25431E-14
27.1758419 	 1.46664239E-01 	 2.86096E-14 	 2.55310E-14 	 5.15319E-15 	 6.17221E-14
27.3225061 	 1.48121886E-01 	 2.83774E-14 	 2.44675E-14 	 5.09504E-15 	 7.11120E-14
27.4706280 	 1.49612347E-01 	 2.81439E-14 	 2.33847E-14 	 5.04009E-15 	 8.07180E-14
27.6202404 	 1.51137196E-01 	 2.79091E-14 	 2.22821E-14 	 4.98834E-15 	 9.05453E-14
27.7713776 	 1.52698040E-01 	 2.76732E-14 	 2.11591E-14 	 4.93981E-15 	 1.00601E-13
27.9240756 	 1.54296711E-01 	 2.74360E-14 	 2.00152E-14 	 4.89449E-15 	 1.10892E-13
28.0783723 	 1.55935067E-01 	 2.71978E-14 	 1.88496E-14 	 4.85242E-15 	 1.21426E-13
28.2343074 	 1.57615148E-01 	 2.69585E-14 	 1.76616E-14 	 4.81362E-15 	 1.32213E-13
28.3919225 	 1.59339110E-01 	 2.67181E-14 	 1.64502E-14 	 4.77814E-15 	 1.43264E-13
28.5512616 	 1.61109296E-01 	 2.64768E-14 	 1.52145E-14 	 4.74603E-15 	 1.54591E-13
28.7123709 	 1.62928242E-01 	 2.62344E-14 	 1.39532E-14 	 4.71735E-15 	 1.66207E-13
28.8752992 	 1.64798604E-01 	 2.59912E-14 	 1.26651E-14 	 4.69217E-15 	 1.78127E-13
29.0400978 	 1.66723346E-01 	 2.57469E-14 	 1.13487E-14 	 4.67058E-15 	 1.90369E-13
29.2068211 	 1.68705614E-01 	 2.55018E-14 	 1.00023E-14 	 4.65268E-15 	 2.02950E-13
29.3755267 	 1.70748825E-01 	 2.52557E-14 	 8.62410E-15 	 4.63859E-15 	 2.15894E-13
29.5462756 	 1.72856688E-01 	 2.50088E-14 	 7.21192E-15 	 4.62845E-15 	 2.29224E-13
29.7191322 	 1.75033267E-01 	 2.47608E-14 	 5.76336E-15 	 4.62241E-15 	 2.42968E-13
29.8941655 	 1.77283015E-01 	 2.45120E-14 	 4.27575E-15 	 4.62068E-15 	 2.57156E-13
30.0714485 	 1.79610753E-01 	 2.42621E-14 	 2.74603E-15 	 4.62344E-15 	 2.71823E-13
30.2510593 	 1.82021816E-01 	 2.40112E-14 	 1.17072E-15 	 4.63096E-15 	 2.87008E-13
30.4330811 	 1.84522087E-01 	 2.37592E-14 	 4.54091E-16 	 4.64351E-15 	 3.02756E-13
30.6176032 	 1.87118027E-01 	 2.35060E-14 	 2.13294E-15 	 4.66143E-15 	 3.19119E-13
30.8047212 	 1.89816856E-01 	 2.32516E-14 	 3.87093E-15 	 4.68506E-15 	 3.36153E-13
30.9945381 	 1.92626604E-01 	 2.29957E-14 	 5.67397E-15 	 4.71488E-15 	 3.53926E-13
31.1871647 	 1.95556189E-01 	 2.27384E-14 	 7.54884E-15 	 4.75137E-15 	 3.72515E-13
31.3827209 	 1.98615741E-01 	 2.24794E-14 	 9.50337E-15 	 4.79512E-15 	 3.92007E-13
31.5813366 	 2.01816567E-01 	 2.22185E-14 	 1.15467E-14 	 4.84682E-15 	 4.12506E-13
31.7831532 	 2.05171592E-01 	 2.19555E-14 	 1.36894E-14 	 4.90727E-15 	 4.34131E-13
31.9883248 	 2.08695500E-01 	 2.16900E-14 	 1.59441E-14 	 4.97743E-15 	 4.57023E-13
32.1970203 	 2.12405169E-01 	 2.14217E-14 	 1.83255E-14 	 5.05842E-15 	 4.81349E-13
32.4094254 	 2.16320120E-01 	 2.11502E-14 	 2.08511E-14 	 5.15160E-15 	 5.07306E-13
32.6257455 	 2.20463029E-01 	 2.08750E-14 	 2.35422E-14 	 5.25858E-15 	 5.35132E-13
32.8462086 	 2.24860543E-01 	 2.05954E-14 	 2.64242E-14 	 5.38134E-15 	 5.65115E-13
33.0710691 	 2.24720562E-01 	 2.03105E-14 	 2.95283E-14 	 5.52229E-15 	 5.97604E-13
33.2957897 	 2.22850491E-01 	 1.83816E-14 	 3.02076E-14 	 5.22180E-15 	 5.81308E-13
33.5186402 	 2.21347195E-01 	 1.60897E-14 	 2.97701E-14 	 4.79069E-15 	 5.47478E-13
33.7399874 	 2.20158326E-01 	 1.41486E-14 	 2.93636E-14 	 4.42792E-15 	 5.18400E-13
33.9601457 	 2.19233372E-01 	 1.24840E-14 	 2.89871E-14 	 4.11927E-15 	 4.93130E-13
34.1793791 	 2.18533782E-01 	 1.10385E-14 	 2.86341E-14 	 3.85352E-15 	 4.70877E-13
34.3979128 	 2.18029576E-01 	 9.77002E-15 	 2.83000E-14 	 3.62239E-15 	 4.51057E-13
34.6159424 	 2.17697101E-01 	 8.64671E-15 	 2.79813E-14 	 3.41965E-15 	 4.33231E-13
34.8336395 	 2.17517390E-01 	 7.64400E-15 	 2.76753E-14 	 3.24051E-15 	 4.17061E-13
35.0511569 	 2.17475129E-01 	 6.74266E-15 	 2.73800E-14 	 3.08121E-15 	 4.02284E-13
35.2686320 	 2.17557782E-01 	 5.92735E-15 	 2.70939E-14 	 2.93877E-15 	 3.88689E-13
35.4861898 	 2.17755076E-01 	 5.18571E-15 	 2.68158E-14 	 2.81080E-15 	 3.76106E-13
35.7039449 	 2.18058452E-01 	 4.50763E-15 	 2.65445E-14 	 2.69534E-15 	 3.64398E-13
35.9220034 	 2.18460869E-01 	 3.88477E-15 	 2.62794E-14 	 2.59078E-15 	 3.53451E-13
36.1404642 	 2.18956433E-01 	 3.31017E-15 	 2.60197E-14 	 2.49579E-15 	 3.43170E-13
36.3594207 	 2.19540262E-01 	 2.77799E-15 	 2.57649E-14 	 2.40926E-15 	 3.33474E-13
36.5789609 	 2.20208294E-01 	 2.28324E-15 	 2.55146E-14 	 2.33024E-15 	 3.24298E-13
36.7991692 	 2.20957167E-01 	 1.82168E-15 	 2.52683E-14 	 2.25794E-15 	 3.15582E-13
37.0201264 	 2.21784171E-01 	 1.38965E-15 	 2.50258E-14 	 2.19166E-15 	 3.07277E-13
37.2419105 	 2.22687059E-01 	 9.83971E-16 	 2.47867E-14 	 2.13083E-15 	 2.99341E-13
37.4645976 	 2.23664123E-01 	 6.01893E-16 	 2.45509E-14 	 2.07494E-15 	 2.91736E-13
37.6882617 	 2.24714011E-01 	 2.40979E-16 	 2.43181E-14 	 2.02355E-15 	 2.84429E-13
37.9129757 	 2.25835781E-01 	 1.00916E-16 	 2.40882E-14 	 1.97628E-15 	 2.77390E-13
38.1388115 	 2.27028802E-01 	 4.25697E-16 	 2.38610E-14 	 1.93279E-15 	 2.70596E-13
38.3658403 	 2.28292780E-01 	 7.35064E-16 	 2.36363E-14 	 1.89280E-15 	 2.64021E-13
38.5941331 	 2.29627681E-01 	 1.03054E-15 	 2.34141E-14 	 1.85606E-15 	 2.57647E-13
38.8237608 	 2.31033787E-01 	 1.31352E-15 	 2.31943E-14 	 1.82234E-15 	 2.51453E-13
39.0547946 	 2.32511628E-01 	 1.58523E-15 	 2.29767E-14 	 1.79144E-15 	 2.45424E-13
39.2873062 	 2.34061945E-01 	 1.84683E-15 	 2.27612E-14 	 1.76320E-15 	 2.39544E-13
39.5213681 	 2.35685772E-01 	 2.09936E-15 	 2.25479E-14 	 1.73746E-15 	 2.33798E-13
39.7570539 	 2.37384375E-01 	 2.34381E-15 	 2.23366E-14 	 1.71409E-15 	 2.28174E-13
39.9944383 	 2.39159269E-01 	 2.58106E-15 	 2.21272E-14 	 1.69299E-15 	 2.22659E-13
40.2335976 	 2.41012224E-01 	 2.81197E-15 	 2.19197E-14 	 1.67406E-15 	 2.17242E-13
40.4746098 	 2.42945250E-01 	 3.03734E-15 	 2.17141E-14 	 1.65720E-15 	 2.11911E-13
40.7175550 	 2.44960622E-01 	 3.25791E-15 	 2.15103E-14 	 1.64236E-15 	 2.06658E-13
40.9625157 	 2.47060867E-01 	 3.47442E-15 	 2.13082E-14 	 1.62947E-15 	 2.01470E-13
41.2095765 	 2.49248852E-01 	 3.68756E-15 	 2.11077E-14 	 1.61849E-15 	 1.96340E-13
41.4588254 	 2.51527716E-01 	 3.89802E-15 	 2.09089E-14 	 1.60938E-15 	 1.91257E-13
41.7103531 	 2.53900920E-01 	 4.10645E-15 	 2.07117E-14 	 1.60213E-15 	 1.86213E-13
41.9642540 	 2.56372262E-01 	 4.31353E-15 	 2.05160E-14 	 1.59673E-15 	 1.81197E-13
42.2206263 	 2.58945935E-01 	 4.51990E-15 	 2.03218E-14 	 1.59316E-15 	 1.76201E-13
42.4795722 	 2.61626541E-01 	 4.72624E-15 	 2.01290E-14 	 1.59144E-15 	 1.71215E-13
42.7411988 	 2.64419087E-01 	 4.93322E-15 	 1.99375E-14 	 1.59159E-15 	 1.66229E-13
43.0056178 	 2.67329112E-01 	 5.14154E-15 	 1.97474E-14 	 1.59365E-15 	 1.61235E-13
43.2729470 	 2.70362656E-01 	 5.35193E-15 	 1.95585E-14 	 1.59766E-15 	 1.56220E-13
43.5433096 	 2.73526386E-01 	 5.56513E-15 	 1.93707E-14 	 1.60369E-15 	 1.51174E-13
43.8168360 	 2.76827562E-01 	 5.78195E-15 	 1.91841E-14 	 1.61180E-15 	 1.46085E-13
44.0936636 	 2.80274269E-01 	 6.00324E-15 	 1.89984E-14 	 1.62209E-15 	 1.40941E-13
44.3739378 	 2.83875339E-01 	 6.22993E-15 	 1.88137E-14 	 1.63467E-15 	 1.35729E-13
44.6578132 	 2.87640565E-01 	 6.46299E-15 	 1.86298E-14 	 1.64967E-15 	 1.30432E-13
44.9454537 	 2.91580804E-01 	 6.70354E-15 	 1.84466E-14 	 1.66724E-15 	 1.25036E-13
45.2370345 	 2.95708113E-01 	 6.95275E-15 	 1.82640E-14 	 1.68757E-15 	 1.19523E-13
45.5327426 	 3.00035847E-01 	 7.21199E-15 	 1.80819E-14 	 1.71086E-15 	 1.13872E-13
45.8327785 	 3.04579068E-01 	 7.48273E-15 	 1.79001E-14 	 1.73736E-15 	 1.08061E-13
46.1373576 	 3.09354542E-01 	 7.76668E-15 	 1.77184E-14 	 1.76736E-15 	 1.02064E-13
46.4467121 	 3.14381223E-01 	 8.06575E-15 	 1.75366E-14 	 1.80120E-15 	 9.58524E-14
46.7610933 	 3.19680534E-01 	 8.38216E-15 	 1.73545E-14 	 1.83928E-15 	 8.93932E-14
47.0807739 	 3.25276843E-01 	 8.71845E-15 	 1.71719E-14 	 1.88208E-15 	 8.26477E-14
47.4060507 	 3.31197974E-01 	 9.07760E-15 	 1.69884E-14 	 1.93016E-15 	 7.55708E-14
47.7372487 	 3.37475962E-01 	 9.46310E-15 	 1.68036E-14 	 1.98417E-15 	 6.81096E-14
48.0747246 	 3.44147872E-01 	 9.87911E-15 	 1.66171E-14 	 2.04494E-15 	 6.02016E-14
48.4188725 	 3.51256915E-01 	 1.03306E-14 	 1.64284E-14 	 2.11343E-15 	 5.17713E-14
48.7701294 	 3.58853891E-01 	 1.08235E-14 	 1.62369E-14 	 2.19083E-15 	 4.27279E-14
49.1289833 	 3.66999087E-01 	 1.13653E-14 	 1.60418E-14 	 2.27861E-15 	 3.29599E-14
49.4959824 	 3.75764723E-01 	 1.19650E-14 	 1.58422E-14 	 2.37858E-15 	 2.23296E-14
49.8717471 	 3.82675428E-01 	 1.26341E-14 	 1.56368E-14 	 2.49304E-15 	 1.06639E-14
50.2544226 	 3.86194509E-01 	 1.30314E-14 	 1.50108E-14 	 2.55564E-15 	 2.24256E-15
50.6406171 	 3.89930698E-01 	 1.29387E-14 	 1.38047E-14 	 2.52532E-15 	 1.52658E-14
51.0305478 	 3.93823130E-01 	 1.28569E-14 	 1.26490E-14 	 2.50026E-15 	 2.78543E-14
51.4243709 	 3.97874808E-01 	 1.27772E-14 	 1.15303E-14 	 2.47857E-15 	 4.00444E-14
51.8222457 	 4.02087884E-01 	 1.26997E-14 	 1.04460E-14 	 2.46011E-15 	 5.18668E-14
52.2243336 	 4.06465074E-01 	 1.26243E-14 	 9.39372E-15 	 2.44474E-15 	 6.33496E-14
52.6307987 	 4.11009360E-01 	 1.25508E-14 	 8.37116E-15 	 2.43233E-15 	 7.45173E-14
53.0418080 	 4.15724154E-01 	 1.24793E-14 	 7.37635E-15 	 2.42279E-15 	 8.53923E-14
53.4575322 	 4.20613149E-01 	 1.24095E-14 	 6.40750E-15 	 2.41600E-15 	 9.59942E-14
53.8781453 	 4.25680459E-01 	 1.23415E-14 	 5.46299E-15 	 2.41191E-15 	 1.06341E-13
54.3038258 	 4.30930506E-01 	 1.22752E-14 	 4.54139E-15 	 2.41045E-15 	 1.16449E-13
54.7347563 	 4.36368081E-01 	 1.22105E-14 	 3.64140E-15 	 2.41157E-15 	 1.26333E-13
55.1711244 	 4.41998303E-01 	 1.21473E-14 	 2.76185E-15 	 2.41523E-15 	 1.36005E-13
55.6131227 	 4.47826641E-01 	 1.20857E-14 	 1.90172E-15 	 2.42140E-15 	 1.45477E-13
56.0609493 	 4.53858930E-01 	 1.20255E-14 	 1.06005E-15 	 2.43006E-15 	 1.54760E-13
56.5148082 	 4.60101384E-01 	 1.19667E-14 	 2.36045E-16 	 2.44121E-15 	 1.63862E-13
56.9749096 	 4.66560530E-01 	 1.19093E-14 	 5.71031E-16 	 2.45484E-15 	 1.72791E-13
57.4414702 	 4.73243279E-01 	 1.18532E-14 	 1.36181E-15 	 2.47094E-15 	 1.81555E-13
57.9147134 	 4.80156954E-01 	 1.17983E-14 	 2.13685E-15 	 2.48955E-15 	 1.90160E-13
58.3948704 	 4.87309246E-01 	 1.17447E-14 	 2.89661E-15 	 2.51066E-15 	 1.98610E-13
58.8821796 	 4.94708216E-01 	 1.16923E-14 	 3.64149E-15 	 2.53431E-15 	 2.06911E-13
59.3768878 	 5.02362387E-01 	 1.16411E-14 	 4.37180E-15 	 2.56053E-15 	 2.15066E-13
59.8792502 	 5.10280626E-01 	 1.15910E-14 	 5.08779E-15 	 2.58934E-15 	 2.23077E-13
60.3895309 	 5.18472264E-01 	 1.15420E-14 	 5.78965E-15 	 2.62078E-15 	 2.30946E-13
60.9080031 	 5.26947039E-01 	 1.14941E-14 	 6.47749E-15 	 2.65490E-15 	 2.38675E-13
61.4349502 	 5.35715159E-01 	 1.14472E-14 	 7.15136E-15 	 2.69174E-15 	 2.46264E-13
61.9706653 	 5.44787335E-01 	 1.14014E-14 	 7.81125E-15 	 2.73134E-15 	 2.53713E-13
62.5154527 	 5.54174604E-01 	 1.13566E-14 	 8.45708E-15 	 2.77376E-15 	 2.61021E-13
63.0696273 	 5.63888599E-01 	 1.13127E-14 	 9.08874E-15 	 2.81905E-15 	 2.68187E-13
63.6335159 	 5.73941415E-01 	 1.12699E-14 	 9.70602E-15 	 2.86726E-15 	 2.75208E-13
64.2074573 	 5.84345607E-01 	 1.12280E-14 	 1.03087E-14 	 2.91843E-15 	 2.82082E-13
64.7918029 	 5.95114294E-01 	 1.11870E-14 	 1.08964E-14 	 2.97262E-15 	 2.88804E-13
65.3869172 	 6.06261018E-01 	 1.11470E-14 	 1.14690E-14 	 3.02988E-15 	 2.95371E-13
65.9931782 	 6.17800000E-01 	 1.11078E-14 	 1.20258E-14 	 3.09025E-15 	 3.01778E-13
66.6109782 	 6.29745880E-01 	 1.10696E-14 	 1.25665E-14 	 3.15377E-15 	 3.08020E-13
67.2407241 	 6.41585738E-01 	 1.10323E-14 	 1.30907E-14 	 3.22047E-15 	 3.14092E-13
67.8823098 	 6.47456187E-01 	 1.09593E-14 	 1.35531E-14 	 3.27951E-15 	 3.18929E-13
68.5297660 	 6.54026887E-01 	 1.04644E-14 	 1.34558E-14 	 3.21228E-15 	 3.11037E-13
69.1837929 	 6.61211328E-01 	 1.00294E-14 	 1.33697E-14 	 3.15855E-15 	 3.04119E-13
69.8450042 	 6.68990095E-01 	 9.64188E-15 	 1.32889E-14 	 3.11544E-15 	 2.97930E-13
70.5139943 	 6.77349655E-01 	 9.29514E-15 	 1.32129E-14 	 3.08163E-15 	 2.92371E-13
71.1913440 	 6.86281649E-01 	 8.98379E-15 	 1.31410E-14 	 3.05603E-15 	 2.87358E-13
71.8776256 	 6.95782186E-01 	 8.70343E-15 	 1.30729E-14 	 3.03778E-15 	 2.82826E-13
72.5734078 	 7.05851001E-01 	 8.45038E-15 	 1.30080E-14 	 3.02614E-15 	 2.78719E-13
73.2792588 	 7.16491092E-01 	 8.22160E-15 	 1.29461E-14 	 3.02051E-15 	 2.74990E-13
73.9957499 	 7.27708261E-01 	 8.01452E-15 	 1.28870E-14 	 3.02039E-15 	 2.71601E-13
74.7234582 	 7.39510828E-01 	 7.82695E-15 	 1.28303E-14 	 3.02534E-15 	 2.68519E-13
75.4629690 	 7.51909356E-01 	 7.65703E-15 	 1.27759E-14 	 3.03499E-15 	 2.65715E-13
76.2148783 	 7.64916583E-01 	 7.50314E-15 	 1.27236E-14 	 3.04902E-15 	 2.63164E-13
76.9797949 	 7.78547228E-01 	 7.36390E-15 	 1.26733E-14 	 3.06713E-15 	 2.60846E-13
77.7583421 	 7.92817851E-01 	 7.23809E-15 	 1.26248E-14 	 3.08908E-15 	 2.58742E-13
78.5511600 	 8.07746908E-01 	 7.12462E-15 	 1.25780E-14 	 3.11462E-15 	 2.56836E-13
79.3589069 	 6.41093092E-01 	 7.02256E-15 	 1.25328E-14 	 3.14353E-15 	 2.55112E-13
80.0000000 	 1.00000001E-01 	 2.52236E-15 	 4.56521E-15 	 1.16092E-15 	 9.25402E-14
80.1000000 	 6.20609963E-02 	 4.00963E-15 	 1.34624E-14 	 1.21065E-16 	 1.02394E-13
80.1620610 	 6.24496809E-02 	 3.94689E-15 	 1.31579E-14 	 1.43670E-16 	 9.95642E-14
80.2245107 	 6.28390676E-02 	 3.97618E-15 	 1.31573E-14 	 1.69989E-16 	 9.90263E-14
80.2873497 	 6.32317776E-02 	 4.00646E-15 	 1.31543E-14 	 1.97528E-16 	 9.84455E-14
80.3505815 	 6.36278963E-02 	 4.03842E-15 	 1.31510E-14 	 2.26463E-16 	 9.78377E-14
80.4142094 	 6.40275263E-02 	 4.07212E-15 	 1.31475E-14 	 2.56685E-16 	 9.72030E-14
80.4782369 	 6.44307735E-02 	 4.10763E-15 	 1.31439E-14 	 2.88384E-16 	 9.65411E-14
80.5426677 	 6.48377492E-02 	 4.14499E-15 	 1.31402E-14 	 3.21507E-16 	 9.58518E-14
80.6075055 	 6.52485650E-02 	 4.18427E-15 	 1.31365E-14 	 3.56201E-16 	 9.51351E-14
80.6727540 	 6.56633302E-02 	 4.22554E-15 	 1.31329E-14 	 3.92481E-16 	 9.43906E-14
80.7384174 	 6.60821662E-02 	 4.26885E-15 	 1.31293E-14 	 4.30415E-16 	 9.36181E-14
80.8044995 	 6.65051920E-02 	 4.31426E-15 	 1.31259E-14 	 4.70110E-16 	 9.28175E-14
80.8710047 	 6.69325281E-02 	 4.36184E-15 	 1.31227E-14 	 5.11567E-16 	 9.19885E-14
80.9379373 	 6.73643005E-02 	 4.41163E-15 	 1.31198E-14 	 5.54881E-16 	 9.11307E-14
81.0053016 	 6.78006413E-02 	 4.46371E-15 	 1.31173E-14 	 6.00160E-16 	 9.02438E-14
81.0731022 	 6.82416792E-02 	 4.51815E-15 	 1.31151E-14 	 6.47472E-16 	 8.93275E-14
81.1413439 	 6.86875498E-02 	 4.57499E-15 	 1.31134E-14 	 6.96844E-16 	 8.83815E-14
81.2100314 	 6.91383979E-02 	 4.63430E-15 	 1.31122E-14 	 7.48384E-16 	 8.74053E-14
81.2791698 	 6.95943617E-02 	 4.69615E-15 	 1.31116E-14 	 8.02242E-16 	 8.63986E-14
81.3487642 	 7.00555907E-02 	 4.76060E-15 	 1.31115E-14 	 8.58404E-16 	 8.53608E-14
81.4188198 	 7.05222379E-02 	 4.82772E-15 	 1.31121E-14 	 9.16978E-16 	 8.42914E-14
81.4893420 	 7.09944564E-02 	 4.89757E-15 	 1.31135E-14 	 9.78127E-16 	 8.31899E-14
81.5603365 	 7.14724125E-02 	 4.97022E-15 	 1.31156E-14 	 1.04186E-15 	 8.20559E-14
81.6318089 	 7.19562681E-02 	 5.04574E-15 	 1.31185E-14 	 1.10834E-15 	 8.08886E-14
81.7037651 	 7.24461972E-02 	 5.12420E-15 	 1.31223E-14 	 1.17762E-15 	 7.96875E-14
81.7762113 	 7.29423773E-02 	 5.20568E-15 	 1.31271E-14 	 1.24980E-15 	 7.84518E-14
81.8491537 	 7.34449876E-02 	 5.29023E-15 	 1.31327E-14 	 1.32502E-15 	 7.71809E-14
81.9225987 	 7.39542206E-02 	 5.37794E-15 	 1.31394E-14 	 1.40335E-15 	 7.58741E-14
81.9965529 	 7.44702696E-02 	 5.46888E-15 	 1.31471E-14 	 1.48494E-15 	 7.45305E-14
82.0710232 	 7.49933362E-02 	 5.56313E-15 	 1.31560E-14 	 1.56988E-15 	 7.31492E-14
82.1460165 	 7.55236257E-02 	 5.66076E-15 	 1.31660E-14 	 1.65829E-15 	 7.17295E-14
82.2215402 	 7.60613601E-02 	 5.76187E-15 	 1.31771E-14 	 1.75027E-15 	 7.02704E-14
82.2976015 	 7.66067547E-02 	 5.86652E-15 	 1.31895E-14 	 1.84595E-15 	 6.87708E-14
82.3742083 	 7.71600562E-02 	 5.97479E-15 	 1.32032E-14 	 1.94548E-15 	 6.72300E-14
82.4513683 	 7.77214846E-02 	 6.08679E-15 	 1.32182E-14 	 2.04894E-15 	 6.56464E-14
82.5290898 	 7.82913045E-02 	 6.20261E-15 	 1.32345E-14 	 2.15653E-15 	 6.40194E-14
82.6073811 	 7.88697681E-02 	 6.32232E-15 	 1.32522E-14 	 2.26831E-15 	 6.23476E-14
82.6862509 	 7.94571416E-02 	 6.44603E-15 	 1.32714E-14 	 2.38447E-15 	 6.06295E-14
82.7657080 	 8.00537005E-02 	 6.57383E-15 	 1.32920E-14 	 2.50514E-15 	 5.88640E-14
82.8457617 	 8.06597469E-02 	 6.70582E-15 	 1.33141E-14 	 2.63046E-15 	 5.70496E-14
82.9264215 	 8.12755694E-02 	 6.84212E-15 	 1.33378E-14 	 2.76058E-15 	 5.51851E-14
83.0076970 	 8.19014755E-02 	 6.98283E-15 	 1.33630E-14 	 2.89567E-15 	 5.32685E-14
83.0895985 	 8.25378043E-02 	 7.12805E-15 	 1.33898E-14 	 3.03592E-15 	 5.12986E-14
83.1721363 	 8.31848854E-02 	 7.27792E-15 	 1.34183E-14 	 3.18142E-15 	 4.92735E-14
83.2553212 	 8.38430792E-02 	 7.43252E-15 	 1.34485E-14 	 3.33239E-15 	 4.71913E-14
83.3391643 	 8.45127337E-02 	 7.59202E-15 	 1.34804E-14 	 3.48900E-15 	 4.50501E-14
83.4236770 	 8.51942588E-02 	 7.75654E-15 	 1.35140E-14 	 3.65147E-15 	 4.28479E-14
83.5088713 	 8.58880327E-02 	 7.92621E-15 	 1.35494E-14 	 3.81996E-15 	 4.05830E-14
83.5947593 	 8.65944785E-02 	 8.10119E-15 	 1.35865E-14 	 3.99468E-15 	 3.82523E-14
83.6813538 	 8.73140324E-02 	 8.28160E-15 	 1.36255E-14 	 4.17580E-15 	 3.58541E-14
83.7686678 	 8.80471457E-02 	 8.46765E-15 	 1.36664E-14 	 4.36364E-15 	 3.33856E-14
83.8567150 	 8.87943012E-02 	 8.65946E-15 	 1.37091E-14 	 4.55834E-15 	 3.08441E-14
83.9455093 	 8.95559853E-02 	 8.85724E-15 	 1.37538E-14 	 4.76022E-15 	 2.82270E-14
84.0350653 	 9.03327298E-02 	 9.06115E-15 	 1.38004E-14 	 4.96945E-15 	 2.55311E-14
84.1253980 	 9.11250728E-02 	 9.27140E-15 	 1.38489E-14 	 5.18638E-15 	 2.27532E-14
84.2165231 	 9.19336008E-02 	 9.48821E-15 	 1.38994E-14 	 5.41123E-15 	 1.98898E-14
84.3084567 	 9.27588928E-02 	 9.71179E-15 	 1.39519E-14 	 5.64434E-15 	 1.69376E-14
84.4012156 	 9.36015933E-02 	 9.94236E-15 	 1.40065E-14 	 5.88601E-15 	 1.38924E-14
84.4948171 	 9.44623627E-02 	 1.01802E-14 	 1.40631E-14 	 6.13656E-15 	 1.07503E-14
84.5892795 	 9.53418972E-02 	 1.04255E-14 	 1.41217E-14 	 6.39636E-15 	 7.50669E-15
84.6846214 	 9.62409378E-02 	 1.06787E-14 	 1.41824E-14 	 6.66579E-15 	 4.15716E-15
84.7808623 	 9.71602546E-02 	 1.09399E-14 	 1.42453E-14 	 6.94526E-15 	 6.96166E-16
84.8780226 	 9.81006643E-02 	 1.12096E-14 	 1.43102E-14 	 7.23515E-15 	 2.88094E-15
84.9761233 	 9.90630288E-02 	 1.14880E-14 	 1.43773E-14 	 7.53598E-15 	 6.58067E-15
85.0751863 	 1.00048253E-01 	 1.17755E-14 	 1.44465E-14 	 7.84822E-15 	 1.04090E-14
85.1752345 	 1.01057317E-01 	 1.20726E-14 	 1.45179E-14 	 8.17237E-15 	 1.43723E-14
85.2762919 	 1.02091241E-01 	 1.23796E-14 	 1.45915E-14 	 8.50902E-15 	 1.84784E-14
85.3783831 	 1.03151105E-01 	 1.26971E-14 	 1.46672E-14 	 8.85880E-15 	 2.27349E-14
85.4815342 	 1.04238060E-01 	 1.30255E-14 	 1.47451E-14 	 9.22231E-15 	 2.71499E-14
85.5857723 	 1.05353330E-01 	 1.33652E-14 	 1.48252E-14 	 9.60029E-15 	 3.17330E-14
85.6911256 	 1.06498240E-01 	 1.37170E-14 	 1.49075E-14 	 9.99347E-15 	 3.64938E-14
85.7976238 	 1.07674151E-01 	 1.40815E-14 	 1.49920E-14 	 1.04027E-14 	 4.14432E-14
85.9052980 	 1.08882568E-01 	 1.44592E-14 	 1.50787E-14 	 1.08289E-14 	 4.65928E-14
86.0141806 	 1.10125097E-01 	 1.48510E-14 	 1.51675E-14 	 1.12730E-14 	 5.19551E-14
86.1243057 	 1.11403408E-01 	 1.52577E-14 	 1.52586E-14 	 1.17362E-14 	 5.75445E-14
86.2357091 	 1.12719352E-01 	 1.56801E-14 	 1.53518E-14 	 1.22195E-14 	 6.33757E-14
86.3484284 	 1.14074881E-01 	 1.61192E-14 	 1.54472E-14 	 1.27242E-14 	 6.94658E-14
86.4625033 	 1.15472144E-01 	 1.65760E-14 	 1.55447E-14 	 1.32518E-14 	 7.58328E-14
86.5779754 	 1.16913393E-01 	 1.70518E-14 	 1.56444E-14 	 1.38038E-14 	 8.24969E-14
86.6948888 	 1.18401130E-01 	 1.75477E-14 	 1.57461E-14 	 1.43819E-14 	 8.94804E-14
86.8132900 	 1.19938011E-01 	 1.80652E-14 	 1.58499E-14 	 1.49880E-14 	 9.68081E-14
86.9332280 	 1.21526948E-01 	 1.86059E-14 	 1.59557E-14 	 1.56241E-14 	 1.04507E-13
87.0547549 	 1.23171132E-01 	 1.91714E-14 	 1.60636E-14 	 1.62927E-14 	 1.12607E-13
87.1779261 	 1.24874035E-01 	 1.97637E-14 	 1.61733E-14 	 1.69963E-14 	 1.21143E-13
87.3028001 	 1.26639413E-01 	 2.03851E-14 	 1.62849E-14 	 1.77378E-14 	 1.30152E-13
87.4294395 	 1.28471461E-01 	 2.10378E-14 	 1.63983E-14 	 1.85204E-14 	 1.39676E-13
87.5579110 	 1.30374753E-01 	 2.17246E-14 	 1.65134E-14 	 1.93480E-14 	 1.49765E-13
87.6882857 	 1.32166503E-01 	 2.24486E-14 	 1.66300E-14 	 2.02245E-14 	 1.60472E-13
87.8204522 	 1.33381461E-01 	 2.30811E-14 	 1.66526E-14 	 2.10345E-14 	 1.70883E-13
87.9538337 	 1.34633394E-01 	 2.32892E-14 	 1.63518E-14 	 2.14682E-14 	 1.78387E-13
88.0884671 	 1.35914893E-01 	 2.35024E-14 	 1.60481E-14 	 2.19121E-14 	 1.86028E-13
88.2243820 	 1.37227106E-01 	 2.37148E-14 	 1.57367E-14 	 2.23608E-14 	 1.93769E-13
88.3616091 	 1.38571171E-01 	 2.39265E-14 	 1.54172E-14 	 2.28148E-14 	 2.01614E-13
88.5001802 	 1.39948229E-01 	 2.41373E-14 	 1.50890E-14 	 2.32742E-14 	 2.09571E-13
88.6401285 	 1.41359515E-01 	 2.43471E-14 	 1.47515E-14 	 2.37394E-14 	 2.17646E-13
88.7814880 	 1.42806312E-01 	 2.45559E-14 	 1.44041E-14 	 2.42106E-14 	 2.25847E-13
88.9242943 	 1.44289974E-01 	 2.47637E-14 	 1.40462E-14 	 2.46881E-14 	 2.34179E-13
89.0685843 	 1.45811952E-01 	 2.49702E-14 	 1.36772E-14 	 2.51723E-14 	 2.42651E-13
89.2143962 	 1.47373771E-01 	 2.51755E-14 	 1.32963E-14 	 2.56637E-14 	 2.51271E-13
89.3617700 	 1.48977055E-01 	 2.53795E-14 	 1.29029E-14 	 2.61626E-14 	 2.60047E-13
89.5107471 	 1.50623472E-01 	 2.55820E-14 	 1.24962E-14 	 2.66695E-14 	 2.68988E-13
89.6613705 	 1.52314855E-01 	 2.57830E-14 	 1.20754E-14 	 2.71848E-14 	 2.78104E-13
89.8136854 	 1.54053183E-01 	 2.59824E-14 	 1.16397E-14 	 2.77092E-14 	 2.87406E-13
89.9677386 	 1.55840439E-01 	 2.61801E-14 	 1.11882E-14 	 2.82434E-14 	 2.96904E-13
90.1235790 	 1.57678837E-01 	 2.63761E-14 	 1.07200E-14 	 2.87878E-14 	 3.06610E-13
90.2812578 	 1.59570739E-01 	 2.65701E-14 	 1.02341E-14 	 2.93433E-14 	 3.16537E-13
90.4408286 	 1.61518600E-01 	 2.67622E-14 	 9.72939E-15 	 2.99106E-14 	 3.26697E-13
90.6023472 	 1.63525124E-01 	 2.69522E-14 	 9.20482E-15 	 3.04907E-14 	 3.37105E-13
90.7658723 	 1.65593167E-01 	 2.71400E-14 	 8.65917E-15 	 3.10846E-14 	 3.47777E-13
90.9314655 	 1.67725801E-01 	 2.73254E-14 	 8.09116E-15 	 3.16932E-14 	 3.58730E-13
91.0991913 	 1.69926345E-01 	 2.75085E-14 	 7.49940E-15 	 3.23177E-14 	 3.69981E-13
91.2691176 	 1.72198381E-01 	 2.76889E-14 	 6.88244E-15 	 3.29595E-14 	 3.81551E-13
91.4413160 	 1.74545740E-01 	 2.78667E-14 	 6.23863E-15 	 3.36199E-14 	 3.93461E-13
91.6158617 	 1.76972614E-01 	 2.80416E-14 	 5.56626E-15 	 3.43006E-14 	 4.05734E-13
91.7928344 	 1.79483518E-01 	 2.82135E-14 	 4.86343E-15 	 3.50033E-14 	 4.18395E-13
91.9723179 	 1.82083395E-01 	 2.83823E-14 	 4.12808E-15 	 3.57300E-14 	 4.31473E-13
92.1544013 	 1.84777554E-01 	 2.85477E-14 	 3.35795E-15 	 3.64828E-14 	 4.44999E-13
92.3391788 	 1.87571910E-01 	 2.87096E-14 	 2.55055E-15 	 3.72641E-14 	 4.59006E-13
92.5267507 	 1.90472817E-01 	 2.88677E-14 	 1.70315E-15 	 3.80767E-14 	 4.73533E-13
92.7172235 	 1.93487363E-01 	 2.90219E-14 	 8.12725E-16 	 3.89237E-14 	 4.88621E-13
92.9107109 	 1.96623286E-01 	 2.91718E-14 	 1.24104E-16 	 3.98086E-14 	 5.04317E-13
93.1073342 	 1.99889158E-01 	 2.93172E-14 	 1.11109E-15 	 4.07352E-14 	 5.20674E-13
93.3072234 	 2.02154702E-01 	 2.94578E-14 	 2.15248E-15 	 4.17081E-14 	 5.37750E-13
93.5093781 	 2.04462402E-01 	 2.89299E-14 	 3.18424E-15 	 4.17769E-14 	 5.43216E-13
93.7138405 	 2.06834253E-01 	 2.83741E-14 	 4.22000E-15 	 4.18255E-14 	 5.48304E-13
93.9206747 	 2.09272096E-01 	 2.78017E-14 	 5.26037E-15 	 4.18709E-14 	 5.53219E-13
94.1299468 	 2.11778162E-01 	 2.72118E-14 	 6.30514E-15 	 4.19129E-14 	 5.57947E-13
94.3417250 	 2.14354839E-01 	 2.66035E-14 	 7.35405E-15 	 4.19515E-14 	 5.62474E-13
94.5560798 	 2.17004652E-01 	 2.59761E-14 	 8.40676E-15 	 4.19869E-14 	 5.66786E-13
94.7730845 	 2.19730227E-01 	 2.53288E-14 	 9.46289E-15 	 4.20190E-14 	 5.70867E-13
94.9928147 	 2.22534359E-01 	 2.46607E-14 	 1.05219E-14 	 4.20479E-14 	 5.74699E-13
95.2153490 	 2.25419989E-01 	 2.39709E-14 	 1.15832E-14 	 4.20736E-14 	 5.78264E-13
95.4407690 	 2.28390218E-01 	 2.32584E-14 	 1.26462E-14 	 4.20962E-14 	 5.81542E-13
95.6691593 	 2.31448322E-01 	 2.25223E-14 	 1.37100E-14 	 4.21157E-14 	 5.84509E-13
95.9006076 	 2.34597771E-01 	 2.17614E-14 	 1.47737E-14 	 4.21322E-14 	 5.87141E-13
96.1352053 	 2.37842238E-01 	 2.09747E-14 	 1.58364E-14 	 4.21456E-14 	 5.89412E-13
96.3730476 	 2.41185598E-01 	 2.01611E-14 	 1.68968E-14 	 4.21561E-14 	 5.91293E-13
96.6142332 	 2.44631943E-01 	 1.93194E-14 	 1.79537E-14 	 4.21636E-14 	 5.92754E-13
96.8588651 	 2.48185619E-01 	 1.84482E-14 	 1.90056E-14 	 4.21682E-14 	 5.93759E-13
97.1070507 	 2.51851267E-01 	 1.75463E-14 	 2.00510E-14 	 4.21699E-14 	 5.94273E-13
97.3589020 	 2.55633762E-01 	 1.66123E-14 	 2.10880E-14 	 4.21686E-14 	 5.94256E-13
97.6145358 	 2.59538294E-01 	 1.56446E-14 	 2.21147E-14 	 4.21645E-14 	 5.93664E-13
97.8740741 	 2.63570386E-01 	 1.46417E-14 	 2.31288E-14 	 4.21575E-14 	 5.92452E-13
98.1376445 	 2.67735921E-01 	 1.36019E-14 	 2.41281E-14 	 4.21477E-14 	 5.90569E-13
98.4053804 	 2.72041138E-01 	 1.25236E-14 	 2.51098E-14 	 4.21350E-14 	 5.87960E-13
98.6774215 	 2.76492698E-01 	 1.14047E-14 	 2.60710E-14 	 4.21194E-14 	 5.84566E-13
98.9539142 	 2.81097702E-01 	 1.02434E-14 	 2.70085E-14 	 4.21009E-14 	 5.80322E-13
99.2350119 	 2.85863744E-01 	 9.03754E-15 	 2.79187E-14 	 4.20795E-14 	 5.75158E-13
99.5208757 	 2.89535082E-01 	 7.78490E-15 	 2.87977E-14 	 4.20553E-14 	 5.69000E-13
99.8104107 	 2.92913364E-01 	 6.36766E-15 	 2.91280E-14 	 4.12969E-14 	 5.51984E-13
100.1033241 	 2.96558619E-01 	 4.92436E-15 	 2.92313E-14 	 4.03216E-14 	 5.31287E-13
100.3998827 	 3.00473849E-01 	 3.50877E-15 	 2.93326E-14 	 3.94537E-14 	 5.11252E-13
100.7003566 	 3.04672494E-01 	 2.10965E-15 	 2.94282E-14 	 3.86818E-14 	 4.91650E-13
101.0050291 	 3.09170863E-01 	 7.16795E-16 	 2.95175E-14 	 3.80008E-14 	 4.72325E-13
101.3141999 	 3.13988720E-01 	 6.80019E-16 	 2.95996E-14 	 3.74068E-14 	 4.53120E-13
101.6281886 	 3.19149591E-01 	 2.09127E-15 	 2.96737E-14 	 3.68975E-14 	 4.33881E-13
101.9473382 	 3.24681507E-01 	 3.52808E-15 	 2.97389E-14 	 3.64718E-14 	 4.14446E-13
102.2720197 	 3.30617742E-01 	 5.00254E-15 	 2.97941E-14 	 3.61303E-14 	 3.94645E-13
102.6026375 	 3.36997902E-01 	 6.52816E-15 	 2.98380E-14 	 3.58749E-14 	 3.74291E-13
102.9396354 	 3.43869341E-01 	 8.12046E-15 	 2.98690E-14 	 3.57095E-14 	 3.53171E-13
103.2835047 	 3.51288963E-01 	 9.79763E-15 	 2.98855E-14 	 3.56400E-14 	 3.31043E-13
103.6347937 	 3.59325809E-01 	 1.15815E-14 	 2.98850E-14 	 3.56747E-14 	 3.07614E-13
103.9941195 	 3.68064397E-01 	 1.34989E-14 	 2.98648E-14 	 3.58253E-14 	 2.82534E-13
104.3621839 	 3.77609461E-01 	 1.55835E-14 	 2.98212E-14 	 3.61076E-14 	 2.55362E-13
104.7397934 	 3.88092748E-01 	 1.78784E-14 	 2.97497E-14 	 3.65430E-14 	 2.25538E-13
105.1278861 	 3.99682883E-01 	 2.04401E-14 	 2.96440E-14 	 3.71609E-14 	 1.92329E-13
105.5275690 	 4.12600179E-01 	 2.33448E-14 	 2.94956E-14 	 3.80020E-14 	 1.54751E-13
105.9401692 	 4.27139710E-01 	 2.66981E-14 	 2.92929E-14 	 3.91239E-14 	 1.11442E-13
106.3673089 	 4.39117974E-01 	 3.06513E-14 	 2.90188E-14 	 4.06101E-14 	 6.04531E-14
106.8064269 	 4.50531176E-01 	 3.39847E-14 	 2.74611E-14 	 4.08320E-14 	 1.34155E-15
107.2569580 	 4.52278361E-01 	 3.71388E-14 	 2.52517E-14 	 4.06027E-14 	 6.98436E-14
107.7092364 	 4.54730368E-01 	 3.69674E-14 	 2.06910E-14 	 3.68623E-14 	 1.32795E-13
108.1639668 	 4.57772569E-01 	 3.68336E-14 	 1.65459E-14 	 3.36592E-14 	 1.89717E-13
108.6217393 	 4.61352663E-01 	 3.67170E-14 	 1.27204E-14 	 3.08717E-14 	 2.41842E-13
109.0830920 	 4.65432566E-01 	 3.66133E-14 	 9.15084E-15 	 2.84217E-14 	 2.90102E-13
109.5485246 	 4.69984960E-01 	 3.65194E-14 	 5.78870E-15 	 2.62497E-14 	 3.35205E-13
110.0185095 	 4.74990903E-01 	 3.64328E-14 	 2.59655E-15 	 2.43100E-14 	 3.77699E-13
110.4935004 	 4.80438094E-01 	 3.63516E-14 	 4.55137E-16 	 2.25664E-14 	 4.18016E-13
110.9739385 	 4.86319641E-01 	 3.62743E-14 	 3.38998E-15 	 2.09902E-14 	 4.56504E-13
111.4602582 	 4.92633228E-01 	 3.61999E-14 	 6.22713E-15 	 1.95581E-14 	 4.93442E-13
111.9528914 	 4.99380519E-01 	 3.61273E-14 	 8.98230E-15 	 1.82512E-14 	 5.29061E-13
112.4522719 	 5.06566662E-01 	 3.60559E-14 	 1.16685E-14 	 1.70536E-14 	 5.63553E-13
112.9588386 	 5.14200023E-01 	 3.59849E-14 	 1.42966E-14 	 1.59523E-14 	 5.97076E-13
113.4730386 	 5.22292071E-01 	 3.59139E-14 	 1.68759E-14 	 1.49363E-14 	 6.29767E-13
113.9953307 	 5.30857172E-01 	 3.58423E-14 	 1.94141E-14 	 1.39962E-14 	 6.61738E-13
114.5261878 	 5.39912559E-01 	 3.57699E-14 	 2.19180E-14 	 1.31240E-14 	 6.93090E-13
115.0661004 	 5.49478461E-01 	 3.56961E-14 	 2.43933E-14 	 1.23128E-14 	 7.23904E-13
115.6155788 	 5.59578084E-01 	 3.56207E-14 	 2.68450E-14 	 1.15568E-14 	 7.54254E-13
116.1751569 	 5.70237755E-01 	 3.55434E-14 	 2.92775E-14 	 1.08508E-14 	 7.84202E-13
116.7453947 	 5.81487149E-01 	 3.54639E-14 	 3.16946E-14 	 1.01902E-14 	 8.13804E-13
117.3268818 	 5.88417200E-01 	 3.53818E-14 	 3.40995E-14 	 9.57124E-15 	 8.43105E-13
117.9152990 	 5.90511999E-01 	 3.41259E-14 	 3.52922E-14 	 8.69025E-15 	 8.43309E-13
118.5058110 	 5.93667159E-01 	 3.17627E-14 	 3.50816E-14 	 7.61686E-15 	 8.12820E-13
119.0994782 	 5.97746836E-01 	 2.97337E-14 	 3.49047E-14 	 6.72156E-15 	 7.86613E-13
119.6972250 	 6.02671827E-01 	 2.79639E-14 	 3.47484E-14 	 5.96423E-15 	 7.63660E-13
120.2998969 	 6.08386794E-01 	 2.64024E-14 	 3.46074E-14 	 5.31680E-15 	 7.43309E-13
120.9082836 	 6.14854369E-01 	 2.50111E-14 	 3.44779E-14 	 4.75824E-15 	 7.25077E-13
121.5231380 	 6.22051148E-01 	 2.37611E-14 	 3.43568E-14 	 4.27275E-15 	 7.08592E-13
122.1451892 	 6.29964903E-01 	 2.26298E-14 	 3.42420E-14 	 3.84791E-15 	 6.93567E-13
122.7751541 	 6.38592653E-01 	 2.15992E-14 	 3.41318E-14 	 3.47404E-15 	 6.79774E-13
123.4137467 	 6.47939493E-01 	 2.06550E-14 	 3.40247E-14 	 3.14325E-15 	 6.67030E-13
124.0616862 	 6.58017653E-01 	 1.97855E-14 	 3.39196E-14 	 2.84931E-15 	 6.55186E-13
124.7197039 	 6.68846027E-01 	 1.89810E-14 	 3.38156E-14 	 2.58710E-15 	 6.44118E-13
125.3885499 	 6.80449849E-01 	 1.82337E-14 	 3.37118E-14 	 2.35234E-15 	 6.33725E-13
126.0689997 	 6.92860609E-01 	 1.75367E-14 	 3.36076E-14 	 2.14152E-15 	 6.23921E-13
126.7618604 	 7.06116171E-01 	 1.68844E-14 	 3.35024E-14 	 1.95168E-15 	 6.14632E-13
127.4679765 	 7.20260954E-01 	 1.62720E-14 	 3.33955E-14 	 1.78030E-15 	 6.05794E-13
128.1882375 	 7.35346398E-01 	 1.56953E-14 	 3.32864E-14 	 1.62524E-15 	 5.97353E-13
128.9235839 	 7.51431325E-01 	 1.51508E-14 	 3.31747E-14 	 1.48468E-15 	 5.89261E-13
129.6750152 	 7.68582868E-01 	 1.46351E-14 	 3.30599E-14 	 1.35704E-15 	 5.81476E-13
130.4435981 	 7.86877169E-01 	 1.41457E-14 	 3.29413E-14 	 1.24096E-15 	 5.73958E-13
131.2304752 	 8.06400321E-01 	 1.36801E-14 	 3.28187E-14 	 1.13525E-15 	 5.66675E-13
132.0368756 	 8.27249949E-01 	 1.32361E-14 	 3.26914E-14 	 1.03888E-15 	 5.59595E-13
132.8641255 	 8.49536393E-01 	 1.28119E-14 	 3.25590E-14 	 9.50912E-16 	 5.52688E-13
133.7136619 	 8.73384767E-01 	 1.24057E-14 	 3.24208E-14 	 8.70623E-16 	 5.45928E-13
134.5870467 	 8.98936962E-01 	 1.20160E-14 	 3.22762E-14 	 7.97186E-16 	 5.39290E-13
135.4859836 	 9.26354446E-01 	 1.16413E-14 	 3.21246E-14 	 7.30036E-16 	 5.32748E-13
136.4123381 	 9.55821365E-01 	 1.12804E-14 	 3.19653E-14 	 6.68602E-16 	 5.26279E-13
137.3681594 	 9.87548281E-01 	 1.09321E-14 	 3.17974E-14 	 6.12390E-16 	 5.19859E-13
138.3557077 	 1.02177697E+00 	 1.05953E-14 	 3.16202E-14 	 5.60948E-16 	 5.13466E-13
139.3774847 	 6.22515303E-01 	 1.02690E-14 	 3.14325E-14 	 5.13871E-16 	 5.07074E-13
140.0000000 	 0.00000000E+00 	 1.15455E-15 	 3.63801E-15 	 5.41285E-17 	 5.82566E-14
