Tempo 		 C_OBp 		 C_OBa 		 C_OCa 		 Pi_mec_act_obp	 Beta_rkl_mech 	 TGFb 		 Pi_Tb_act_Obu 	 Pi_Tb_rep_Obp 	 Pi_Tb_act_oca 	 C_PTH_PTHR 	 Pi_pth_act_ob 	 Pi_pth_rep_ob 	 Beta_opg_max 	 OPG 		 RKLmax 	 RKLtot 	 C_RKL 		 C_RKL_RK 	 Pi_rkl_act_ocp	 DeltaBMDnrm 	 w 		 eps_22 	 eps_33
0.0000000 	 6.19600E-04 	 5.58400E-04 	 8.07000E-04 	 5.00000E-01 	 0.00000E+00 	 1.92000E+02 	 4.00000E-01 	 7.50000E-01 	 2.00000E-01 	 3.14457E-02 	 1.00000E-02 	 6.82481E-01 	 1.67948E+01 	 2.25000E+00 	 3.18413E+01 	 1.00919E+00 	 1.00000E-01 	 7.86300E-04 	 2.00000E-01 	 0.00000E+00 	 1.66601E+03 	 0.00000E+00 	 -3.30000E-04
0.1000000 	 6.19600E-04 	 5.58400E-04 	 8.07000E-04 	 5.00000E-01 	 0.00000E+00 	 1.92000E+02 	 4.00000E-01 	 7.50000E-01 	 2.00000E-01 	 3.14457E-02 	 1.00000E-02 	 6.82481E-01 	 1.67948E+01 	 2.25000E+00 	 3.18413E+01 	 1.00919E+00 	 1.00000E-01 	 7.86300E-04 	 2.00000E-01 	 0.00000E+00 	 1.66601E+03 	 0.00000E+00 	 -3.30000E-04
0.2000000 	 6.19600E-04 	 5.58400E-04 	 8.07000E-04 	 5.00000E-01 	 0.00000E+00 	 1.92000E+02 	 4.00000E-01 	 7.50000E-01 	 2.00000E-01 	 3.14457E-02 	 1.00000E-02 	 6.82481E-01 	 1.67948E+00 	 2.35603E-01 	 3.18413E+01 	 1.00800E+00 	 1.00118E-01 	 7.87224E-04 	 2.00188E-01 	 1.60065E-11 	 1.66601E+03 	 0.00000E+00 	 -3.30000E-04
0.2689654 	 6.19600E-04 	 5.58400E-04 	 8.07007E-04 	 5.00000E-01 	 0.00000E+00 	 1.92002E+02 	 4.00002E-01 	 7.49998E-01 	 2.00001E-01 	 3.14457E-02 	 1.00000E-02 	 6.82481E-01 	 1.67948E+00 	 2.35603E-01 	 3.18413E+01 	 1.00800E+00 	 1.00118E-01 	 7.87224E-04 	 2.00188E-01 	 -1.18160E-05 	 1.66601E+03 	 0.00000E+00 	 -3.30000E-04
0.3386168 	 6.19600E-04 	 5.58400E-04 	 8.07014E-04 	 5.00000E-01 	 0.00000E+00 	 1.92003E+02 	 4.00004E-01 	 7.49997E-01 	 2.00003E-01 	 3.14457E-02 	 1.00000E-02 	 6.82481E-01 	 1.67948E+00 	 2.35603E-01 	 3.18413E+01 	 1.00800E+00 	 1.00118E-01 	 7.87224E-04 	 2.00188E-01 	 -2.27522E-05 	 1.66601E+03 	 0.00000E+00 	 -3.30000E-04
0.4090002 	 6.19600E-04 	 5.58400E-04 	 8.07021E-04 	 5.00000E-01 	 0.00000E+00 	 1.92005E+02 	 4.00006E-01 	 7.49995E-01 	 2.00004E-01 	 3.14457E-02 	 1.00000E-02 	 6.82481E-01 	 1.67948E+00 	 2.35603E-01 	 3.18414E+01 	 1.00800E+00 	 1.00118E-01 	 7.87224E-04 	 2.00188E-01 	 -5.13260E-05 	 1.66601E+03 	 0.00000E+00 	 -3.30000E-04
0.4801418 	 6.19600E-04 	 5.58400E-04 	 8.07028E-04 	 5.00000E-01 	 0.00000E+00 	 1.92007E+02 	 4.00008E-01 	 7.49993E-01 	 2.00006E-01 	 3.14457E-02 	 1.00000E-02 	 6.82481E-01 	 1.67948E+00 	 2.35603E-01 	 3.18414E+01 	 1.00800E+00 	 1.00118E-01 	 7.87224E-04 	 2.00188E-01 	 -9.16275E-05 	 1.66601E+03 	 0.00000E+00 	 -3.30000E-04
0.5520900 	 6.19601E-04 	 5.58400E-04 	 8.07035E-04 	 5.00000E-01 	 0.00000E+00 	 1.92008E+02 	 4.00011E-01 	 7.49992E-01 	 2.00007E-01 	 3.14458E-02 	 1.00000E-02 	 6.82481E-01 	 1.67948E+00 	 2.35603E-01 	 3.18414E+01 	 1.00800E+00 	 1.00118E-01 	 7.87224E-04 	 2.00188E-01 	 -1.43868E-04 	 1.66601E+03 	 0.00000E+00 	 -3.30000E-04
0.6248838 	 6.19601E-04 	 5.58400E-04 	 8.07042E-04 	 5.00000E-01 	 0.00000E+00 	 1.92010E+02 	 4.00013E-01 	 7.49990E-01 	 2.00008E-01 	 3.14458E-02 	 1.00000E-02 	 6.82481E-01 	 1.67948E+00 	 2.35603E-01 	 3.18414E+01 	 1.00800E+00 	 1.00118E-01 	 7.87224E-04 	 2.00188E-01 	 -2.08290E-04 	 1.66601E+03 	 0.00000E+00 	 -3.30000E-04
0.6985735 	 6.19601E-04 	 5.58400E-04 	 8.07049E-04 	 5.00000E-01 	 0.00000E+00 	 1.92012E+02 	 4.00015E-01 	 7.49989E-01 	 2.00010E-01 	 3.14458E-02 	 1.00000E-02 	 6.82481E-01 	 1.67948E+00 	 2.35603E-01 	 3.18414E+01 	 1.00800E+00 	 1.00118E-01 	 7.87224E-04 	 2.00188E-01 	 -2.85151E-04 	 1.66601E+03 	 0.00000E+00 	 -3.30000E-04
0.7732174 	 6.19602E-04 	 5.58399E-04 	 8.07056E-04 	 5.00000E-01 	 0.00000E+00 	 1.92013E+02 	 4.00017E-01 	 7.49987E-01 	 2.00011E-01 	 3.14458E-02 	 1.00000E-02 	 6.82481E-01 	 1.67948E+00 	 2.35603E-01 	 3.18414E+01 	 1.00800E+00 	 1.00118E-01 	 7.87224E-04 	 2.00188E-01 	 -3.74742E-04 	 1.66601E+03 	 0.00000E+00 	 -3.30000E-04
0.8488676 	 6.19602E-04 	 5.58399E-04 	 8.07063E-04 	 5.00000E-01 	 0.00000E+00 	 1.92015E+02 	 4.00019E-01 	 7.49985E-01 	 2.00012E-01 	 3.14458E-02 	 1.00000E-02 	 6.82481E-01 	 1.67948E+00 	 2.35603E-01 	 3.18414E+01 	 1.00800E+00 	 1.00118E-01 	 7.87224E-04 	 2.00188E-01 	 -4.77388E-04 	 1.66601E+03 	 0.00000E+00 	 -3.30000E-04
0.9255800 	 6.19603E-04 	 5.58399E-04 	 8.07070E-04 	 5.00000E-01 	 0.00000E+00 	 1.92017E+02 	 4.00021E-01 	 7.49984E-01 	 2.00014E-01 	 3.14458E-02 	 1.00000E-02 	 6.82481E-01 	 1.67948E+00 	 2.35603E-01 	 3.18415E+01 	 1.00800E+00 	 1.00118E-01 	 7.87224E-04 	 2.00188E-01 	 -5.93435E-04 	 1.66601E+03 	 0.00000E+00 	 -3.30000E-04
1.0034478 	 6.19603E-04 	 5.58399E-04 	 8.07076E-04 	 5.00000E-01 	 0.00000E+00 	 1.92018E+02 	 4.00023E-01 	 7.49982E-01 	 2.00015E-01 	 3.14458E-02 	 1.00000E-02 	 6.82480E-01 	 1.67948E+00 	 2.35603E-01 	 3.18415E+01 	 1.00800E+00 	 1.00118E-01 	 7.87224E-04 	 2.00188E-01 	 -7.23260E-04 	 1.66601E+03 	 0.00000E+00 	 -3.30000E-04
1.0825096 	 6.19604E-04 	 5.58399E-04 	 8.07083E-04 	 5.00000E-01 	 0.00000E+00 	 1.92020E+02 	 4.00025E-01 	 7.49981E-01 	 2.00016E-01 	 3.14458E-02 	 1.00000E-02 	 6.82480E-01 	 1.67948E+00 	 2.35603E-01 	 3.18415E+01 	 1.00800E+00 	 1.00118E-01 	 7.87224E-04 	 2.00188E-01 	 -8.67339E-04 	 1.66601E+03 	 0.00000E+00 	 -3.30000E-04
1.1628462 	 6.19605E-04 	 5.58399E-04 	 8.07090E-04 	 5.00000E-01 	 0.00000E+00 	 1.92021E+02 	 4.00027E-01 	 7.49979E-01 	 2.00018E-01 	 3.14458E-02 	 1.00000E-02 	 6.82480E-01 	 1.67948E+00 	 2.35603E-01 	 3.18415E+01 	 1.00800E+00 	 1.00118E-01 	 7.87224E-04 	 2.00188E-01 	 -1.02608E-03 	 1.66601E+03 	 0.00000E+00 	 -3.30000E-04
1.2445483 	 6.19606E-04 	 5.58399E-04 	 8.07096E-04 	 5.00000E-01 	 0.00000E+00 	 1.92023E+02 	 4.00029E-01 	 7.49978E-01 	 2.00019E-01 	 3.14458E-02 	 1.00000E-02 	 6.82480E-01 	 1.67948E+00 	 2.35603E-01 	 3.18416E+01 	 1.00800E+00 	 1.00118E-01 	 7.87224E-04 	 2.00188E-01 	 -1.20001E-03 	 1.66601E+03 	 0.00000E+00 	 -3.30000E-04
1.3277035 	 6.19607E-04 	 5.58398E-04 	 8.07103E-04 	 5.00000E-01 	 0.00000E+00 	 1.92025E+02 	 4.00031E-01 	 7.49976E-01 	 2.00020E-01 	 3.14459E-02 	 1.00000E-02 	 6.82480E-01 	 1.67948E+00 	 2.35603E-01 	 3.18416E+01 	 1.00800E+00 	 1.00118E-01 	 7.87224E-04 	 2.00188E-01 	 -1.38971E-03 	 1.66601E+03 	 0.00000E+00 	 -3.30000E-04
1.4123961 	 6.19607E-04 	 5.58398E-04 	 8.07110E-04 	 5.00000E-01 	 0.00000E+00 	 1.92026E+02 	 4.00033E-01 	 7.49975E-01 	 2.00022E-01 	 3.14459E-02 	 1.00000E-02 	 6.82480E-01 	 1.67948E+00 	 2.35603E-01 	 3.18416E+01 	 1.00800E+00 	 1.00118E-01 	 7.87224E-04 	 2.00188E-01 	 -1.59579E-03 	 1.66601E+03 	 0.00000E+00 	 -3.30000E-04
1.4987442 	 6.19608E-04 	 5.58398E-04 	 8.07116E-04 	 5.00000E-01 	 0.00000E+00 	 1.92028E+02 	 4.00035E-01 	 7.49973E-01 	 2.00023E-01 	 3.14459E-02 	 1.00001E-02 	 6.82480E-01 	 1.67948E+00 	 2.35604E-01 	 3.18417E+01 	 1.00800E+00 	 1.00118E-01 	 7.87224E-04 	 2.00188E-01 	 -1.81892E-03 	 1.66601E+03 	 0.00000E+00 	 -3.30000E-04
1.5868568 	 6.19609E-04 	 5.58398E-04 	 8.07123E-04 	 5.00000E-01 	 0.00000E+00 	 1.92029E+02 	 4.00037E-01 	 7.49971E-01 	 2.00024E-01 	 3.14459E-02 	 1.00001E-02 	 6.82480E-01 	 1.67948E+00 	 2.35604E-01 	 3.18417E+01 	 1.00800E+00 	 1.00118E-01 	 7.87224E-04 	 2.00188E-01 	 -2.05989E-03 	 1.66601E+03 	 0.00000E+00 	 -3.30000E-04
1.6768750 	 6.19611E-04 	 5.58398E-04 	 8.07129E-04 	 5.00000E-01 	 0.00000E+00 	 1.92031E+02 	 4.00038E-01 	 7.49970E-01 	 2.00026E-01 	 3.14460E-02 	 1.00001E-02 	 6.82479E-01 	 1.67949E+00 	 2.35604E-01 	 3.18418E+01 	 1.00800E+00 	 1.00118E-01 	 7.87224E-04 	 2.00188E-01 	 -2.31951E-03 	 1.66601E+03 	 0.00000E+00 	 -3.30000E-04
1.7689278 	 6.19612E-04 	 5.58397E-04 	 8.07136E-04 	 5.00000E-01 	 0.00000E+00 	 1.92032E+02 	 4.00040E-01 	 7.49968E-01 	 2.00027E-01 	 3.14460E-02 	 1.00001E-02 	 6.82479E-01 	 1.67949E+00 	 2.35604E-01 	 3.18418E+01 	 1.00800E+00 	 1.00118E-01 	 7.87224E-04 	 2.00188E-01 	 -2.59876E-03 	 1.66601E+03 	 0.00000E+00 	 -3.30000E-04
1.8632015 	 6.19613E-04 	 5.58397E-04 	 8.07143E-04 	 5.00000E-01 	 0.00000E+00 	 1.92034E+02 	 4.00042E-01 	 7.49967E-01 	 2.00028E-01 	 3.14460E-02 	 1.00001E-02 	 6.82479E-01 	 1.67949E+00 	 2.35604E-01 	 3.18419E+01 	 1.00800E+00 	 1.00118E-01 	 7.87224E-04 	 2.00188E-01 	 -2.89866E-03 	 1.66601E+03 	 0.00000E+00 	 -3.30000E-04
1.9598876 	 6.19614E-04 	 5.58397E-04 	 8.07149E-04 	 5.00000E-01 	 0.00000E+00 	 1.92035E+02 	 4.00044E-01 	 7.49965E-01 	 2.00030E-01 	 3.14460E-02 	 1.00001E-02 	 6.82479E-01 	 1.67949E+00 	 2.35604E-01 	 3.18420E+01 	 1.00800E+00 	 1.00118E-01 	 7.87224E-04 	 2.00188E-01 	 -3.22047E-03 	 1.66601E+03 	 0.00000E+00 	 -3.30000E-04
2.0591928 	 6.19616E-04 	 5.58397E-04 	 8.07156E-04 	 5.00000E-01 	 0.00000E+00 	 1.92037E+02 	 4.00046E-01 	 7.49964E-01 	 2.00031E-01 	 3.14461E-02 	 1.00001E-02 	 6.82479E-01 	 1.67949E+00 	 2.35604E-01 	 3.18420E+01 	 1.00800E+00 	 1.00118E-01 	 7.87224E-04 	 2.00188E-01 	 -3.56556E-03 	 1.66601E+03 	 0.00000E+00 	 -3.30000E-04
2.1613803 	 6.19617E-04 	 5.58397E-04 	 8.07162E-04 	 5.00000E-01 	 0.00000E+00 	 1.92039E+02 	 4.00048E-01 	 7.49962E-01 	 2.00032E-01 	 3.14461E-02 	 1.00001E-02 	 6.82478E-01 	 1.67949E+00 	 2.35605E-01 	 3.18421E+01 	 1.00800E+00 	 1.00118E-01 	 7.87224E-04 	 2.00188E-01 	 -3.93549E-03 	 1.66601E+03 	 0.00000E+00 	 -3.30000E-04
2.2667646 	 6.19619E-04 	 5.58396E-04 	 8.07169E-04 	 5.00000E-01 	 0.00000E+00 	 1.92040E+02 	 4.00050E-01 	 7.49961E-01 	 2.00033E-01 	 3.14461E-02 	 1.00001E-02 	 6.82478E-01 	 1.67949E+00 	 2.35605E-01 	 3.18422E+01 	 1.00800E+00 	 1.00118E-01 	 7.87224E-04 	 2.00188E-01 	 -4.33211E-03 	 1.66601E+03 	 0.00000E+00 	 -3.30000E-04
2.3757154 	 6.19621E-04 	 5.58396E-04 	 8.07175E-04 	 5.00000E-01 	 0.00000E+00 	 1.92042E+02 	 4.00052E-01 	 7.49959E-01 	 2.00035E-01 	 3.14462E-02 	 1.00001E-02 	 6.82478E-01 	 1.67949E+00 	 2.35605E-01 	 3.18423E+01 	 1.00800E+00 	 1.00118E-01 	 7.87224E-04 	 2.00188E-01 	 -4.75764E-03 	 1.66601E+03 	 0.00000E+00 	 -3.30000E-04
2.4886804 	 6.19623E-04 	 5.58396E-04 	 8.07182E-04 	 5.00000E-01 	 0.00000E+00 	 1.92043E+02 	 4.00054E-01 	 7.49958E-01 	 2.00036E-01 	 3.14462E-02 	 1.00002E-02 	 6.82477E-01 	 1.67950E+00 	 2.35605E-01 	 3.18423E+01 	 1.00800E+00 	 1.00118E-01 	 7.87224E-04 	 2.00188E-01 	 -5.21470E-03 	 1.66601E+03 	 0.00000E+00 	 -3.30000E-04
2.6062484 	 6.19625E-04 	 5.58396E-04 	 8.07189E-04 	 5.00000E-01 	 0.00000E+00 	 1.92045E+02 	 4.00056E-01 	 7.49956E-01 	 2.00037E-01 	 3.14463E-02 	 1.00002E-02 	 6.82477E-01 	 1.67950E+00 	 2.35606E-01 	 3.18424E+01 	 1.00800E+00 	 1.00118E-01 	 7.87224E-04 	 2.00188E-01 	 -5.70644E-03 	 1.66601E+03 	 0.00000E+00 	 -3.30000E-04
2.7291944 	 6.19627E-04 	 5.58396E-04 	 8.07196E-04 	 5.00000E-01 	 0.00000E+00 	 1.92047E+02 	 4.00058E-01 	 7.49955E-01 	 2.00039E-01 	 3.14463E-02 	 1.00002E-02 	 6.82477E-01 	 1.67950E+00 	 2.35606E-01 	 3.18425E+01 	 1.00800E+00 	 1.00118E-01 	 7.87224E-04 	 2.00188E-01 	 -6.23691E-03 	 1.66601E+03 	 0.00000E+00 	 -3.30000E-04
2.8585556 	 6.19629E-04 	 5.58396E-04 	 8.07202E-04 	 5.00000E-01 	 0.00000E+00 	 1.92048E+02 	 4.00060E-01 	 7.49953E-01 	 2.00040E-01 	 3.14464E-02 	 1.00002E-02 	 6.82476E-01 	 1.67950E+00 	 2.35606E-01 	 3.18427E+01 	 1.00800E+00 	 1.00118E-01 	 7.87224E-04 	 2.00188E-01 	 -6.81137E-03 	 1.66601E+03 	 0.00000E+00 	 -3.30000E-04
2.9958532 	 6.19631E-04 	 5.58396E-04 	 8.07209E-04 	 5.00000E-01 	 0.00000E+00 	 1.92050E+02 	 4.00062E-01 	 7.49951E-01 	 2.00042E-01 	 3.14464E-02 	 1.00002E-02 	 6.82476E-01 	 1.67950E+00 	 2.35606E-01 	 3.18428E+01 	 1.00800E+00 	 1.00118E-01 	 7.87224E-04 	 2.00188E-01 	 -7.43684E-03 	 1.66601E+03 	 0.00000E+00 	 -3.30000E-04
3.1434871 	 6.19634E-04 	 5.58395E-04 	 8.07217E-04 	 5.00000E-01 	 0.00000E+00 	 1.92052E+02 	 4.00064E-01 	 7.49950E-01 	 2.00043E-01 	 3.14465E-02 	 1.00002E-02 	 6.82476E-01 	 1.67951E+00 	 2.35607E-01 	 3.18429E+01 	 1.00800E+00 	 1.00118E-01 	 7.87224E-04 	 2.00188E-01 	 -8.12338E-03 	 1.66601E+03 	 0.00000E+00 	 -3.30000E-04
3.3057551 	 6.19637E-04 	 5.58395E-04 	 8.07224E-04 	 5.00000E-01 	 0.00000E+00 	 1.92053E+02 	 4.00067E-01 	 7.49948E-01 	 2.00044E-01 	 3.14466E-02 	 1.00003E-02 	 6.82475E-01 	 1.67951E+00 	 2.35607E-01 	 3.18431E+01 	 1.00800E+00 	 1.00118E-01 	 7.87224E-04 	 2.00188E-01 	 -8.88665E-03 	 1.66602E+03 	 0.00000E+00 	 -3.30000E-04
3.4923767 	 6.19640E-04 	 5.58395E-04 	 8.07232E-04 	 5.00000E-01 	 0.00000E+00 	 1.92055E+02 	 4.00069E-01 	 7.49946E-01 	 2.00046E-01 	 3.14467E-02 	 1.00003E-02 	 6.82474E-01 	 1.67951E+00 	 2.35608E-01 	 3.18432E+01 	 1.00800E+00 	 1.00118E-01 	 7.87224E-04 	 2.00188E-01 	 -9.75418E-03 	 1.66602E+03 	 0.00000E+00 	 -3.30000E-04
3.7437537 	 6.19644E-04 	 5.58395E-04 	 8.07241E-04 	 5.00000E-01 	 0.00000E+00 	 1.92057E+02 	 4.00072E-01 	 7.49944E-01 	 2.00048E-01 	 3.14468E-02 	 1.00003E-02 	 6.82474E-01 	 1.67952E+00 	 2.35608E-01 	 3.18434E+01 	 1.00800E+00 	 1.00118E-01 	 7.87224E-04 	 2.00188E-01 	 -1.07871E-02 	 1.66602E+03 	 0.00000E+00 	 -3.30000E-04
3.9920413 	 6.19649E-04 	 5.58396E-04 	 8.07252E-04 	 5.00000E-01 	 0.00000E+00 	 1.92060E+02 	 4.00075E-01 	 7.49941E-01 	 2.00050E-01 	 3.14469E-02 	 1.00004E-02 	 6.82473E-01 	 1.67952E+00 	 2.35609E-01 	 3.18437E+01 	 1.00800E+00 	 1.00118E-01 	 7.87224E-04 	 2.00188E-01 	 -1.22343E-02 	 1.66602E+03 	 0.00000E+00 	 -3.30000E-04
4.1710542 	 6.19653E-04 	 5.58396E-04 	 8.07259E-04 	 5.00000E-01 	 0.00000E+00 	 1.92062E+02 	 4.00077E-01 	 7.49940E-01 	 2.00051E-01 	 3.14470E-02 	 1.00004E-02 	 6.82472E-01 	 1.67953E+00 	 2.35609E-01 	 3.18439E+01 	 1.00800E+00 	 1.00118E-01 	 7.87224E-04 	 2.00188E-01 	 -1.36680E-02 	 1.66602E+03 	 0.00000E+00 	 -3.30000E-04
4.3365297 	 6.19656E-04 	 5.58396E-04 	 8.07267E-04 	 5.00000E-01 	 0.00000E+00 	 1.92063E+02 	 4.00079E-01 	 7.49938E-01 	 2.00053E-01 	 3.14471E-02 	 1.00004E-02 	 6.82471E-01 	 1.67953E+00 	 2.35610E-01 	 3.18442E+01 	 1.00800E+00 	 1.00118E-01 	 7.87224E-04 	 2.00188E-01 	 -1.44157E-02 	 1.66602E+03 	 0.00000E+00 	 -3.30000E-04
4.4939897 	 6.19660E-04 	 5.58397E-04 	 8.07273E-04 	 5.00000E-01 	 0.00000E+00 	 1.92065E+02 	 4.00081E-01 	 7.49937E-01 	 2.00054E-01 	 3.14472E-02 	 1.00005E-02 	 6.82471E-01 	 1.67953E+00 	 2.35610E-01 	 3.18444E+01 	 1.00800E+00 	 1.00118E-01 	 7.87224E-04 	 2.00188E-01 	 -1.54523E-02 	 1.66602E+03 	 0.00000E+00 	 -3.30000E-04
4.6466362 	 6.19663E-04 	 5.58397E-04 	 8.07279E-04 	 5.00000E-01 	 0.00000E+00 	 1.92066E+02 	 4.00083E-01 	 7.49935E-01 	 2.00055E-01 	 3.14473E-02 	 1.00005E-02 	 6.82470E-01 	 1.67954E+00 	 2.35611E-01 	 3.18446E+01 	 1.00800E+00 	 1.00118E-01 	 7.87224E-04 	 2.00188E-01 	 -1.64587E-02 	 1.66602E+03 	 0.00000E+00 	 -3.30000E-04
4.7960844 	 6.19667E-04 	 5.58397E-04 	 8.07284E-04 	 5.00000E-01 	 0.00000E+00 	 1.92068E+02 	 4.00084E-01 	 7.49934E-01 	 2.00056E-01 	 3.14474E-02 	 1.00005E-02 	 6.82469E-01 	 1.67954E+00 	 2.35611E-01 	 3.18448E+01 	 1.00800E+00 	 1.00118E-01 	 7.87225E-04 	 2.00188E-01 	 -1.74517E-02 	 1.66602E+03 	 0.00000E+00 	 -3.30000E-04
4.9432857 	 6.19670E-04 	 5.58398E-04 	 8.07289E-04 	 5.00000E-01 	 0.00000E+00 	 1.92069E+02 	 4.00086E-01 	 7.49933E-01 	 2.00057E-01 	 3.14475E-02 	 1.00006E-02 	 6.82469E-01 	 1.67954E+00 	 2.35612E-01 	 3.18450E+01 	 1.00800E+00 	 1.00118E-01 	 7.87225E-04 	 2.00188E-01 	 -1.84396E-02 	 1.66602E+03 	 0.00000E+00 	 -3.30000E-04
5.0888881 	 6.19673E-04 	 5.58398E-04 	 8.07294E-04 	 5.00000E-01 	 0.00000E+00 	 1.92070E+02 	 4.00087E-01 	 7.49932E-01 	 2.00058E-01 	 3.14476E-02 	 1.00006E-02 	 6.82468E-01 	 1.67955E+00 	 2.35612E-01 	 3.18451E+01 	 1.00800E+00 	 1.00118E-01 	 7.87225E-04 	 2.00188E-01 	 -1.94269E-02 	 1.66602E+03 	 0.00000E+00 	 -3.30000E-04
5.2333367 	 6.19676E-04 	 5.58399E-04 	 8.07299E-04 	 5.00000E-01 	 0.00000E+00 	 1.92071E+02 	 4.00089E-01 	 7.49931E-01 	 2.00059E-01 	 3.14477E-02 	 1.00006E-02 	 6.82467E-01 	 1.67955E+00 	 2.35613E-01 	 3.18453E+01 	 1.00800E+00 	 1.00118E-01 	 7.87225E-04 	 2.00188E-01 	 -2.04166E-02 	 1.66602E+03 	 0.00000E+00 	 -3.30000E-04
5.3769791 	 6.19679E-04 	 5.58399E-04 	 8.07303E-04 	 5.00000E-01 	 0.00000E+00 	 1.92072E+02 	 4.00090E-01 	 7.49930E-01 	 2.00060E-01 	 3.14478E-02 	 1.00007E-02 	 6.82467E-01 	 1.67955E+00 	 2.35613E-01 	 3.18455E+01 	 1.00800E+00 	 1.00118E-01 	 7.87225E-04 	 2.00188E-01 	 -2.14107E-02 	 1.66602E+03 	 0.00000E+00 	 -3.30000E-04
5.5200785 	 6.19682E-04 	 5.58400E-04 	 8.07307E-04 	 5.00000E-01 	 0.00000E+00 	 1.92073E+02 	 4.00091E-01 	 7.49929E-01 	 2.00061E-01 	 3.14479E-02 	 1.00007E-02 	 6.82466E-01 	 1.67956E+00 	 2.35614E-01 	 3.18457E+01 	 1.00800E+00 	 1.00118E-01 	 7.87225E-04 	 2.00188E-01 	 -2.24104E-02 	 1.66602E+03 	 0.00000E+00 	 -3.30000E-04
5.6628504 	 6.19685E-04 	 5.58401E-04 	 8.07311E-04 	 5.00000E-01 	 0.00000E+00 	 1.92074E+02 	 4.00093E-01 	 7.49928E-01 	 2.00062E-01 	 3.14480E-02 	 1.00007E-02 	 6.82465E-01 	 1.67956E+00 	 2.35614E-01 	 3.18459E+01 	 1.00800E+00 	 1.00118E-01 	 7.87225E-04 	 2.00188E-01 	 -2.34169E-02 	 1.66602E+03 	 0.00000E+00 	 -3.30000E-04
5.8054744 	 6.19688E-04 	 5.58401E-04 	 8.07315E-04 	 5.00000E-01 	 0.00000E+00 	 1.92075E+02 	 4.00094E-01 	 7.49927E-01 	 2.00062E-01 	 3.14481E-02 	 1.00007E-02 	 6.82465E-01 	 1.67957E+00 	 2.35615E-01 	 3.18461E+01 	 1.00800E+00 	 1.00118E-01 	 7.87225E-04 	 2.00188E-01 	 -2.44308E-02 	 1.66602E+03 	 0.00000E+00 	 -3.30000E-04
5.9481004 	 6.19691E-04 	 5.58402E-04 	 8.07319E-04 	 5.00000E-01 	 0.00000E+00 	 1.92076E+02 	 4.00095E-01 	 7.49926E-01 	 2.00063E-01 	 3.14482E-02 	 1.00008E-02 	 6.82464E-01 	 1.67957E+00 	 2.35615E-01 	 3.18463E+01 	 1.00800E+00 	 1.00118E-01 	 7.87225E-04 	 2.00188E-01 	 -2.54527E-02 	 1.66602E+03 	 0.00000E+00 	 -3.30000E-04
6.0908561 	 6.19694E-04 	 5.58403E-04 	 8.07323E-04 	 5.00000E-01 	 0.00000E+00 	 1.92077E+02 	 4.00096E-01 	 7.49925E-01 	 2.00064E-01 	 3.14483E-02 	 1.00008E-02 	 6.82463E-01 	 1.67957E+00 	 2.35616E-01 	 3.18465E+01 	 1.00800E+00 	 1.00118E-01 	 7.87225E-04 	 2.00188E-01 	 -2.64831E-02 	 1.66602E+03 	 0.00000E+00 	 -3.30000E-04
6.2338560 	 6.19697E-04 	 5.58404E-04 	 8.07326E-04 	 5.00000E-01 	 0.00000E+00 	 1.92078E+02 	 4.00097E-01 	 7.49924E-01 	 2.00065E-01 	 3.14484E-02 	 1.00008E-02 	 6.82463E-01 	 1.67958E+00 	 2.35617E-01 	 3.18467E+01 	 1.00800E+00 	 1.00118E-01 	 7.87225E-04 	 2.00188E-01 	 -2.75222E-02 	 1.66602E+03 	 0.00000E+00 	 -3.30000E-04
6.3771907 	 6.19700E-04 	 5.58405E-04 	 8.07329E-04 	 5.00000E-01 	 0.00000E+00 	 1.92078E+02 	 4.00098E-01 	 7.49923E-01 	 2.00065E-01 	 3.14485E-02 	 1.00009E-02 	 6.82462E-01 	 1.67958E+00 	 2.35617E-01 	 3.18469E+01 	 1.00800E+00 	 1.00118E-01 	 7.87225E-04 	 2.00188E-01 	 -2.85704E-02 	 1.66602E+03 	 0.00000E+00 	 -3.30000E-04
6.5209537 	 6.19703E-04 	 5.58405E-04 	 8.07333E-04 	 5.00000E-01 	 0.00000E+00 	 1.92079E+02 	 4.00099E-01 	 7.49923E-01 	 2.00066E-01 	 3.14486E-02 	 1.00009E-02 	 6.82461E-01 	 1.67958E+00 	 2.35618E-01 	 3.18472E+01 	 1.00800E+00 	 1.00118E-01 	 7.87225E-04 	 2.00188E-01 	 -2.96278E-02 	 1.66602E+03 	 0.00000E+00 	 -3.30000E-04
6.6652244 	 6.19706E-04 	 5.58406E-04 	 8.07336E-04 	 5.00000E-01 	 0.00000E+00 	 1.92080E+02 	 4.00100E-01 	 7.49922E-01 	 2.00067E-01 	 3.14487E-02 	 1.00009E-02 	 6.82460E-01 	 1.67959E+00 	 2.35618E-01 	 3.18474E+01 	 1.00800E+00 	 1.00118E-01 	 7.87225E-04 	 2.00188E-01 	 -3.06946E-02 	 1.66602E+03 	 0.00000E+00 	 -3.30000E-04
6.8100696 	 6.19709E-04 	 5.58407E-04 	 8.07339E-04 	 5.00000E-01 	 0.00000E+00 	 1.92081E+02 	 4.00101E-01 	 7.49921E-01 	 2.00067E-01 	 3.14488E-02 	 1.00010E-02 	 6.82460E-01 	 1.67959E+00 	 2.35619E-01 	 3.18476E+01 	 1.00800E+00 	 1.00118E-01 	 7.87225E-04 	 2.00188E-01 	 -3.17708E-02 	 1.66602E+03 	 0.00000E+00 	 -3.30000E-04
